url: https://forum-damblemont-viot.yj.fr/
_________________________________________

compte admin: adming4@g4.com
passwd: adminG4!
1er compte de test : test@test.test
mdp: test1
2er compte de test : azerty@azerty.azerty
mdp : azerty
_________________________________________


